INDEX VERSION 1.130+C:\fsd56\Advance Java\4.Spring Boot\StudentWorkspace\.metadata\.plugins\org.eclipse.jdt.core
1541217456.index
3125474943.index
3684820612.index
72847613.index
3643476436.index
3726178932.index
1682647072.index
3121174920.index
2301516356.index
2186899505.index
1108471323.index
96982615.index
738691897.index
1730356269.index
2999237871.index
1567637551.index
4272036850.index
2215203977.index
278429337.index
2893206083.index
2932313323.index
1309642219.index
598438432.index
4282242014.index
15432126.index
1679607949.index
1688383153.index
2168855089.index
2455258540.index
3906008451.index
468578182.index
3972522307.index
3205656379.index
3472313381.index
2289596222.index
48769854.index
1211718489.index
1487066949.index
1631012350.index
1861923857.index
352409503.index
4196073638.index
147137995.index
1383399549.index
1085297943.index
1543802833.index
2161297804.index
4139461431.index
1972638854.index
2550193019.index
1806501550.index
1023883772.index
1419782012.index
119139909.index
3360287017.index
34329675.index
1973911965.index
1659007328.index
1141825943.index
2370296383.index
2328428522.index
3073087735.index
663571695.index
1748964058.index
1925617579.index
1917476615.index
2338565033.index
69928681.index
2968049954.index
3599654304.index
789594548.index
2929208076.index
1238573452.index
2493763674.index
389162898.index
2430692544.index
2166360768.index
3013832934.index
759110311.index
3338354504.index
203860981.index
3595699254.index
3453294922.index
3085841885.index
986417022.index
171303783.index
2562539231.index
3892560806.index
2988741170.index
344547045.index
2274445109.index
3467085191.index
3473635636.index
2491345155.index
3327022380.index
573891814.index
2973883221.index
1996136756.index
3838412849.index
2795738878.index
2018390229.index
3483713241.index
