127.0.0.1 - - [05/Jan/2024:09:44:42 +0530] "GET / HTTP/1.1" 404 751
0:0:0:0:0:0:0:1 - - [05/Jan/2024:09:44:45 +0530] "GET /StudentWebApp/Login.html HTTP/1.1" 200 530
0:0:0:0:0:0:0:1 - - [05/Jan/2024:09:45:01 +0530] "GET /StudentWebApp/Login?emailId=aditya@gmail.com&password=12345 HTTP/1.1" 200 25
